OFF
22   40	  120
0.000000   1.000000   0.000000
0.000000   0.000000   0.000000
0.500000   0.000000   0.000000
0.475528   0.000000   0.154508
0.404508   0.000000   0.293893
0.293893   0.000000   0.404508
0.154508   0.000000   0.475528
0.000000   0.000000   0.500000
-0.154508   0.000000   0.475528
-0.293893   0.000000   0.404508
-0.404508   0.000000   0.293893
-0.475528   0.000000   0.154508
-0.500000   0.000000   0.000000
-0.475528   0.000000   -0.154508
-0.404508   0.000000   -0.293893
-0.293893   0.000000   -0.404508
-0.154508   0.000000   -0.475528
-0.000000   0.000000   -0.500000
0.154508   0.000000   -0.475528
0.293893   0.000000   -0.404508
0.404508   0.000000   -0.293893
0.475528   0.000000   -0.154508
3	2	0	3
31	3	1	2
3	3	0	4
3	4	1	3
3	4	0	5
3	5	1	4
3	5	0	6
3	6	1	5
3	6	0	7
3	7	1	6
3	7	0	8
3	8	1	7
3	8	0	9
3	9	1	8
3	9	0	10
3	10	1	9
3	10	0	11
3	11	1	10
3	11	0	12
3	12	1	11
3	12	0	13
3	13	1	12
3	13	0	14
3	14	1	13
3	14	0	15
3	15	1	14
3	15	0	16
3	16	1	15
3	16	0	17
3	17	1	16
3	17	0	18
3	18	1	17
3	18	0	19
3	19	1	18
3	19	0	20
3	20	1	19
3	20	0	21
3	21	1	20
3	21	0	2
3	2	1	21
