OFF
8 12 0
0.5 -0.383975 2.66506 
0.5 1.34808 3.66506 
1.5 1.34808 3.66506 
1.5 -0.383975 2.66506 
0.5 -1.15192 7.99519 
0.5 -2.88397 6.99519 
1.5 -1.15192 7.99519 
1.5 -2.88397 6.99519 
3 0 1 2
3 0 2 3
3 5 7 6
3 5 6 4
3 0 3 7
3 0 7 5
3 2 1 4
3 2 4 6
3 2 6 7
3 2 7 3
3 5 4 1
3 5 1 0
